projeto_sd/simulation/qsim/projeto.msim.vcd
$comment
	File created using the following command:
		vcd file projeto.msim.vcd -direction
$end
$date
	Mon Aug 22 14:30:53 2022
$end
$version
	ModelSim Version 2020.1
$end
$timescale
	1ps
$end

$scope module and_5bits_vlg_vec_tst $end
$var reg 5 ! a [4:0] $end
$var reg 5 " b [4:0] $end
$var wire 1 # e [4] $end
$var wire 1 $ e [3] $end
$var wire 1 % e [2] $end
$var wire 1 & e [1] $end
$var wire 1 ' e [0] $end

$scope module i1 $end
$var wire 1 ( gnd $end
$var wire 1 ) vcc $end
$var wire 1 * unknown $end
$var tri1 1 + devclrn $end
$var tri1 1 , devpor $end
$var tri1 1 - devoe $end
$var wire 1 . e[4]~output_o $end
$var wire 1 / e[3]~output_o $end
$var wire 1 0 e[2]~output_o $end
$var wire 1 1 e[1]~output_o $end
$var wire 1 2 e[0]~output_o $end
$var wire 1 3 a[4]~input_o $end
$var wire 1 4 b[4]~input_o $end
$var wire 1 5 inst~combout $end
$var wire 1 6 a[3]~input_o $end
$var wire 1 7 b[3]~input_o $end
$var wire 1 8 inst3~combout $end
$var wire 1 9 a[2]~input_o $end
$var wire 1 : b[2]~input_o $end
$var wire 1 ; inst4~combout $end
$var wire 1 < a[1]~input_o $end
$var wire 1 = b[1]~input_o $end
$var wire 1 > inst2~combout $end
$var wire 1 ? a[0]~input_o $end
$var wire 1 @ b[0]~input_o $end
$var wire 1 A inst1~combout $end
$upscope $end
$upscope $end
$enddefinitions $end
#0
$dumpvars
b1011 !
b1011 "
1'
1&
0%
1$
0#
0(
1)
x*
1+
1,
1-
0.
1/
00
11
12
03
04
05
16
17
18
09
0:
0;
1<
1=
1>
1?
1@
1A
$end
#100000
b11011 !
b1111 "
b1101 "
b1100 "
0@
0=
1:
13
0A
0>
01
02
0'
0&
#200000
b11111 !
b11110 !
b1000 "
b1001 "
1@
0:
0?
19
#300000
b11100 !
b1 "
b1100 !
b0 "
0@
07
0<
03
08
0/
0$
#400000
b100 !
b10000 "
b0 !
b11000 "
b10000 !
17
14
09
06
13
15
1.
1#
#500000
b11010 "
b10010 !
b11011 "
b11010 !
b1011 "
b11 "
1<
16
1@
1=
07
04
1>
05
0.
11
1&
0#
#600000
b111 "
b1010 !
b1000 !
b0 !
b1111 "
0<
06
03
1:
17
0>
01
0&
#700000
b1 !
b101 !
b1101 "
b1100 "
b1000 "
b10101 !
b10111 !
b11111 !
b0 "
0@
0=
0:
07
1?
1<
19
16
13
#800000
b11110 !
b10 "
b110 "
b11100 !
b10100 !
1=
1:
0?
0<
06
1;
10
1%
#900000
b10110 "
b10000 !
b0 !
b11110 "
b11100 "
b10 !
b1010 !
1<
09
16
03
0=
17
14
0;
18
1/
00
0%
1$
